Topic 9 \(\chi ^2\) tests and linear models | Understanding Statistical Thinking With Linear Models
…
Linear models applied in the place of \(\chi^2\) tests are fiddly and in practice we are better off using the hypothesis tests

In the last chapter we looked at discrete data that was ordered and got around it, as hypothesis tests do, by working on ranked data with a linear model. In this section we’ll look at discrete data that isn’t ordered, or is nominal, things like agree, disagree, don't know, or yellow, green, wrinkled, smooth. We’ll also look at discrete data in the form of counts or frequencies.

9.1 The problem with unordered response data

If we have unordered categoric response data (\(y\)-axis) we find ourselves in a bit of a pickle if we want to use try and apply a linear model to understand relationships, because there are no numbers at all. In every other example we’ve looked at the \(y\) response data has been numeric or at least coercible into numbers.

We’ll put ourselves in the shoes of Gregor Mendel and work through his monohybrid cross experiment on flower colour. Mendel’s first step would have been to work out the flower colours after a cross with different coloured true breeding parents, leaving him with a raw dataframe like this:

library(itssl)
its_mendel_data_time()

## # A tibble: 600 x 2
##    cross result
##    <chr> <chr> 
##  1 PP    P     
##  2 WP    P     
##  3 WW    W     
##  4 PW    P     
##  5 PP    P     
##  6 PP    P     
##  7 WP    P     
##  8 WP    P     
##  9 PP    P     
## 10 PP    P     
## # … with 590 more rows
…
